<?xml version="1.0" encoding="UTF-8"?>
<svg width="18px" height="10px" viewBox="0 0 18 10" version="1.1" xmlns="http://www.w3.org/2000/svg" xmlns:xlink="http://www.w3.org/1999/xlink">
    <!-- Generator: Sketch 50.2 (55047) - http://www.bohemiancoding.com/sketch -->
    <title>Group 8</title>
    <desc>Created with Sketch.</desc>
    <defs>
        <polygon id="path-1" points="0.55645 0.1326 17.9302 0.1326 17.9302 10 0.55645 10"></polygon>
    </defs>
    <g id="Page-1" stroke="none" stroke-width="1" fill="none" fill-rule="evenodd">
        <g id="Artboard-1" transform="translate(-4.000000, -50.000000)">
            <g id="Group-8" transform="translate(4.000000, 50.000000)">
                <mask id="mask-2" fill="white">
                    <use xlink:href="#path-1"></use>
                </mask>
                <g id="Clip-7"></g>
                <path d="M15.9297,0.4761 L9.2437,7.1561 L2.5627,0.4761 C2.1047,0.0181 1.3587,0.0181 0.9007,0.4761 C0.4417,0.9341 0.4417,1.6811 0.9007,2.1391 L8.4147,9.6531 C8.6377,9.8771 8.9317,10.0001 9.2437,10.0001 C9.5547,10.0001 9.8547,9.8771 10.0717,9.6531 L17.5867,2.1391 C18.0447,1.6811 18.0447,0.9341 17.5867,0.4761 C17.1287,0.0181 16.3877,0.0181 15.9297,0.4761" id="Fill-6" fill="#FFFFFF" mask="url(#mask-2)"></path>
            </g>
        </g>
    </g>
</svg>